<svg version="1.1" xmlns="http://www.w3.org/2000/svg" viewBox="0 0 16 16">
  <defs>
    <clipPath id="c">
      <polygon points="2,0 2,16 14,16 14,4 10,0"/>
    </clipPath>
    <linearGradient id="g" x1="0%" y1="0%" x2="0%" y2="100%">
      <stop offset="0%" stop-opacity="0.2" />
      <stop offset="100%" stop-opacity="0" />
    </linearGradient>
  </defs>
  <g clip-path="url(#c)">
    <rect x="2" y="0" width="12" height="16" rx="1" fill="#ddd" />
    <path d="M 10 0
             l 0 3
             a 1 1 0 0 0 0.3 0.7
             l 4 4
             L 14 0" fill="url(#g)" />
    <rect x="10" y="-4" width="8" height="8" rx="1" fill="#aaa" />
  </g>
  <circle cx="8" cy="10" r="4" fill="#888" />
  <g fill="#ddd">
    <circle cx="8" cy="8" r="0.75" />
    <rect x="7.25" y="9.25" width="1.5" height="3.5" rx="0.5" />
  </g>
</svg>
